module github.com/contd/task

go 1.12

require (
	cloud.google.com/go v0.44.3 // indirect
	github.com/boltdb/bolt v1.3.1
	github.com/coreos/bbolt v1.3.3 // indirect
	github.com/coreos/etcd v3.3.15+incompatible // indirect
	github.com/coreos/go-semver v0.3.0 // indirect
	github.com/coreos/go-systemd v0.0.0-20190719114852-fd7a80b32e1f // indirect
	github.com/go-kit/kit v0.9.0 // indirect
	github.com/gogo/protobuf v1.3.0 // indirect
	github.com/golang/groupcache v0.0.0-20190702054246-869f871628b6 // indirect
	github.com/google/go-cmp v0.3.1 // indirect
	github.com/google/pprof v0.0.0-20190723021845-34ac40c74b70 // indirect
	github.com/gorilla/websocket v1.4.1 // indirect
	github.com/grpc-ecosystem/grpc-gateway v1.11.1 // indirect
	github.com/hashicorp/golang-lru v0.5.3 // indirect
	github.com/konsorten/go-windows-terminal-sequences v1.0.2 // indirect
	github.com/kr/pty v1.1.8 // indirect
	github.com/magiconair/properties v1.8.1 // indirect
	github.com/mitchellh/go-homedir v1.1.0
	github.com/modern-go/concurrent v0.0.0-20180306012644-bacd9c7ef1dd // indirect
	github.com/modern-go/reflect2 v1.0.1 // indirect
	github.com/mwitkow/go-conntrack v0.0.0-20190716064945-2f068394615f // indirect
	github.com/pelletier/go-toml v1.4.0 // indirect
	github.com/pkg/errors v0.8.1 // indirect
	github.com/prometheus/client_golang v1.1.0 // indirect
	github.com/prometheus/client_model v0.0.0-20190812154241-14fe0d1b01d4 // indirect
	github.com/prometheus/procfs v0.0.4 // indirect
	github.com/rogpeppe/fastuuid v1.2.0 // indirect
	github.com/rogpeppe/go-internal v1.3.1 // indirect
	github.com/russross/blackfriday v2.0.0+incompatible // indirect
	github.com/sirupsen/logrus v1.4.2 // indirect
	github.com/spf13/afero v1.2.2 // indirect
	github.com/spf13/cobra v0.0.5
	github.com/spf13/jwalterweatherman v1.1.0 // indirect
	github.com/spf13/viper v1.4.0 // indirect
	github.com/stretchr/objx v0.2.0 // indirect
	github.com/stretchr/testify v1.4.0 // indirect
	github.com/ugorji/go v1.1.7 // indirect
	go.etcd.io/bbolt v1.3.3 // indirect
	golang.org/x/crypto v0.0.0-20190829043050-9756ffdc2472 // indirect
	golang.org/x/exp v0.0.0-20190829153037-c13cbed26979 // indirect
	golang.org/x/image v0.0.0-20190902063713-cb417be4ba39 // indirect
	golang.org/x/mobile v0.0.0-20190830201351-c6da95954960 // indirect
	golang.org/x/net v0.0.0-20190827160401-ba9fcec4b297 // indirect
	golang.org/x/sys v0.0.0-20190902133755-9109b7679e13 // indirect
	golang.org/x/tools v0.0.0-20190903025054-afe7f8212f0d // indirect
	google.golang.org/api v0.9.0 // indirect
	google.golang.org/appengine v1.6.2 // indirect
	google.golang.org/genproto v0.0.0-20190819201941-24fa4b261c55 // indirect
	google.golang.org/grpc v1.23.0 // indirect
	gopkg.in/check.v1 v1.0.0-20190902080502-41f04d3bba15 // indirect
	honnef.co/go/tools v0.0.1-2019.2.2 // indirect
)
